time,on/off,note,velocity,channel,param
0.0,on,60,127,0,
0.0,on,63,127,0,
0.0,on,67,127,0,
0.0,on,72,127,0,
2.25,off,60,0,0,
2.25,off,63,0,0,
2.25,off,67,0,0,
2.25,off,72,0,0,
3.0,on,60,127,2,
3.0,on,63,127,2,
3.0,on,67,127,2,
3.0,on,72,127,2,
5.25,off,60,0,2,
5.25,off,63,0,2,
5.25,off,67,0,2,
5.25,off,72,0,2,
6.0,on,60,127,4,
6.0,on,63,127,4,
6.0,on,67,127,4,
6.0,on,72,127,4,
8.25,off,60,0,4,
8.25,off,63,0,4,
8.25,off,67,0,4,
8.25,off,72,0,4,
9.0,on,60,127,6,
9.0,on,63,127,6,
9.0,on,67,127,6,
9.0,on,72,127,6,
11.25,off,60,0,6,
11.25,off,63,0,6,
11.25,off,67,0,6,
11.25,off,72,0,6,
12.0,on,60,127,0,
12.0,on,60,127,2,
12.0,on,63,127,0,
12.0,on,63,127,2,
12.0,on,67,127,0,
12.0,on,67,127,2,
12.0,on,72,127,0,
12.0,on,72,127,2,
14.25,off,60,0,0,
14.25,off,60,0,2,
14.25,off,63,0,0,
14.25,off,63,0,2,
14.25,off,67,0,0,
14.25,off,67,0,2,
14.25,off,72,0,0,
14.25,off,72,0,2,
15.0,on,60,127,0,
15.0,on,60,127,4,
15.0,on,63,127,0,
15.0,on,63,127,4,
15.0,on,67,127,0,
15.0,on,67,127,4,
15.0,on,72,127,0,
15.0,on,72,127,4,
17.25,off,60,0,0,
17.25,off,60,0,4,
17.25,off,63,0,0,
17.25,off,63,0,4,
17.25,off,67,0,0,
17.25,off,67,0,4,
17.25,off,72,0,0,
17.25,off,72,0,4,
18.0,on,60,127,0,
18.0,on,60,127,6,
18.0,on,63,127,0,
18.0,on,63,127,6,
18.0,on,67,127,0,
18.0,on,67,127,6,
18.0,on,72,127,0,
18.0,on,72,127,6,
20.25,off,60,0,0,
20.25,off,60,0,6,
20.25,off,63,0,0,
20.25,off,63,0,6,
20.25,off,67,0,0,
20.25,off,67,0,6,
20.25,off,72,0,0,
20.25,off,72,0,6,
21.0,on,60,127,2,
21.0,on,60,127,4,
21.0,on,63,127,2,
21.0,on,63,127,4,
21.0,on,67,127,2,
21.0,on,67,127,4,
21.0,on,72,127,2,
21.0,on,72,127,4,
23.25,off,60,0,2,
23.25,off,60,0,4,
23.25,off,63,0,2,
23.25,off,63,0,4,
23.25,off,67,0,2,
23.25,off,67,0,4,
23.25,off,72,0,2,
23.25,off,72,0,4,
24.0,on,60,127,2,
24.0,on,60,127,6,
24.0,on,63,127,2,
24.0,on,63,127,6,
24.0,on,67,127,2,
24.0,on,67,127,6,
24.0,on,72,127,2,
24.0,on,72,127,6,
26.25,off,60,0,2,
26.25,off,60,0,6,
26.25,off,63,0,2,
26.25,off,63,0,6,
26.25,off,67,0,2,
26.25,off,67,0,6,
26.25,off,72,0,2,
26.25,off,72,0,6,
27.0,on,60,127,4,
27.0,on,60,127,6,
27.0,on,63,127,4,
27.0,on,63,127,6,
27.0,on,67,127,4,
27.0,on,67,127,6,
27.0,on,72,127,4,
27.0,on,72,127,6,
29.25,off,60,0,4,
29.25,off,60,0,6,
29.25,off,63,0,4,
29.25,off,63,0,6,
29.25,off,67,0,4,
29.25,off,67,0,6,
29.25,off,72,0,4,
29.25,off,72,0,6,
30.0,on,60,127,0,
30.0,on,60,127,2,
30.0,on,60,127,4,
30.0,on,63,127,0,
30.0,on,63,127,2,
30.0,on,63,127,4,
30.0,on,67,127,0,
30.0,on,67,127,2,
30.0,on,67,127,4,
30.0,on,72,127,0,
30.0,on,72,127,2,
30.0,on,72,127,4,
32.25,off,60,0,0,
32.25,off,60,0,2,
32.25,off,60,0,4,
32.25,off,63,0,0,
32.25,off,63,0,2,
32.25,off,63,0,4,
32.25,off,67,0,0,
32.25,off,67,0,2,
32.25,off,67,0,4,
32.25,off,72,0,0,
32.25,off,72,0,2,
32.25,off,72,0,4,
33.0,on,60,127,0,
33.0,on,60,127,2,
33.0,on,60,127,6,
33.0,on,63,127,0,
33.0,on,63,127,2,
33.0,on,63,127,6,
33.0,on,67,127,0,
33.0,on,67,127,2,
33.0,on,67,127,6,
33.0,on,72,127,0,
33.0,on,72,127,2,
33.0,on,72,127,6,
35.25,off,60,0,0,
35.25,off,60,0,2,
35.25,off,60,0,6,
35.25,off,63,0,0,
35.25,off,63,0,2,
35.25,off,63,0,6,
35.25,off,67,0,0,
35.25,off,67,0,2,
35.25,off,67,0,6,
35.25,off,72,0,0,
35.25,off,72,0,2,
35.25,off,72,0,6,
36.0,on,60,127,0,
36.0,on,60,127,4,
36.0,on,60,127,6,
36.0,on,63,127,0,
36.0,on,63,127,4,
36.0,on,63,127,6,
36.0,on,67,127,0,
36.0,on,67,127,4,
36.0,on,67,127,6,
36.0,on,72,127,0,
36.0,on,72,127,4,
36.0,on,72,127,6,
38.25,off,60,0,0,
38.25,off,60,0,4,
38.25,off,60,0,6,
38.25,off,63,0,0,
38.25,off,63,0,4,
38.25,off,63,0,6,
38.25,off,67,0,0,
38.25,off,67,0,4,
38.25,off,67,0,6,
38.25,off,72,0,0,
38.25,off,72,0,4,
38.25,off,72,0,6,
39.0,on,60,127,2,
39.0,on,60,127,4,
39.0,on,60,127,6,
39.0,on,63,127,2,
39.0,on,63,127,4,
39.0,on,63,127,6,
39.0,on,67,127,2,
39.0,on,67,127,4,
39.0,on,67,127,6,
39.0,on,72,127,2,
39.0,on,72,127,4,
39.0,on,72,127,6,
41.25,off,60,0,2,
41.25,off,60,0,4,
41.25,off,60,0,6,
41.25,off,63,0,2,
41.25,off,63,0,4,
41.25,off,63,0,6,
41.25,off,67,0,2,
41.25,off,67,0,4,
41.25,off,67,0,6,
41.25,off,72,0,2,
41.25,off,72,0,4,
41.25,off,72,0,6,
42.0,on,60,127,0,
42.0,on,60,127,2,
42.0,on,60,127,4,
42.0,on,60,127,6,
42.0,on,63,127,0,
42.0,on,63,127,2,
42.0,on,63,127,4,
42.0,on,63,127,6,
42.0,on,67,127,0,
42.0,on,67,127,2,
42.0,on,67,127,4,
42.0,on,67,127,6,
42.0,on,72,127,0,
42.0,on,72,127,2,
42.0,on,72,127,4,
42.0,on,72,127,6,
44.25,off,60,0,0,
44.25,off,60,0,2,
44.25,off,60,0,4,
44.25,off,60,0,6,
44.25,off,63,0,0,
44.25,off,63,0,2,
44.25,off,63,0,4,
44.25,off,63,0,6,
44.25,off,67,0,0,
44.25,off,67,0,2,
44.25,off,67,0,4,
44.25,off,67,0,6,
44.25,off,72,0,0,
44.25,off,72,0,2,
44.25,off,72,0,4,
44.25,off,72,0,6,
